{
	"info": {
		"_postman_id": "4281e918-08a7-4b9c-a10f-6b31c63c32c1",
		"name": "Healthy Food Social Network 5",
		"schema": "https://schema.getpostman.com/json/collection/v2.1.0/collection.json"
	},
	"item": [
		{
			"name": "Create and Update New Category as Admin",
			"item": [
				{
					"name": "Authenticate as Admin",
					"event": [
						{
							"listen": "test",
							"script": {
								"id": "cbc2ab8d-0845-4505-acf9-80b0eed30081",
								"exec": [
									"pm.test(\"Status code is 200\", function () {\r",
									"    pm.response.to.have.status(200);\r",
									"});\r",
									"\r",
									"pm.collectionVariables.set('SessionCookie', pm.cookies.get(\"JSESSIONID\"));\r",
									"\r",
									"console.log(pm.cookies.get(\"JSESSIONID\"));"
								],
								"type": "text/javascript"
							}
						}
					],
					"request": {
						"method": "POST",
						"header": [],
						"body": {
							"mode": "urlencoded",
							"urlencoded": [
								{
									"key": "username",
									"value": "{{adminUsername}}",
									"type": "text"
								},
								{
									"key": "password",
									"value": "{{adminPassword}}",
									"type": "text"
								}
							]
						},
						"url": {
							"raw": "{{baseUrl}}/authenticate",
							"host": [
								"{{baseUrl}}"
							],
							"path": [
								"authenticate"
							]
						}
					},
					"response": []
				},
				{
					"name": "Get all categories",
					"event": [
						{
							"listen": "test",
							"script": {
								"id": "84689ff0-3b80-49e8-a7d0-df217dc73f6d",
								"exec": [
									"pm.test(\"Status code is 200\", function () {\r",
									"    pm.response.to.have.status(200);\r",
									"});"
								],
								"type": "text/javascript"
							}
						},
						{
							"listen": "prerequest",
							"script": {
								"id": "bee1cfbf-ec74-4675-a173-3ea83bd41998",
								"exec": [
									""
								],
								"type": "text/javascript"
							}
						}
					],
					"request": {
						"method": "GET",
						"header": [
							{
								"key": "Cookie",
								"value": "{{cookieValue}}",
								"type": "text"
							}
						],
						"url": {
							"raw": "{{baseUrl}}/api/v1/admin/categories",
							"host": [
								"{{baseUrl}}"
							],
							"path": [
								"api",
								"v1",
								"admin",
								"categories"
							]
						}
					},
					"response": []
				},
				{
					"name": "Create new category",
					"event": [
						{
							"listen": "test",
							"script": {
								"id": "d0bef13c-4958-4767-81ee-c69cea446d74",
								"exec": [
									"pm.test(\"Successful POST request\", function () {\r",
									"    pm.expect(pm.response.code).to.eql(200);\r",
									"});\r",
									"\r",
									"let jsonData = pm.response.json();\r",
									"\r",
									"pm.collectionVariables.set(\"newCategoryID\", jsonData.id);\r",
									"pm.collectionVariables.set(\"newCategoryName\", jsonData.category);\r",
									"\r",
									"pm.test(\"Check new category name\", function () {\r",
									"    pm.expect(jsonData.category).to.eql(pm.collectionVariables.get(\"newCategoryName\"));\r",
									"});"
								],
								"type": "text/javascript"
							}
						}
					],
					"request": {
						"method": "POST",
						"header": [],
						"body": {
							"mode": "formdata",
							"formdata": [
								{
									"key": "category",
									"type": "file",
									"src": "newCategory.json"
								},
								{
									"key": "file",
									"type": "file",
									"src": "spices.png"
								}
							]
						},
						"url": {
							"raw": "{{baseUrl}}/api/v1/admin/categories",
							"host": [
								"{{baseUrl}}"
							],
							"path": [
								"api",
								"v1",
								"admin",
								"categories"
							]
						}
					},
					"response": []
				},
				{
					"name": "Get all categories",
					"event": [
						{
							"listen": "test",
							"script": {
								"id": "0baaa9fc-f0cb-46c6-93c8-58455bfab4df",
								"exec": [
									"pm.test(\"Status code is 200\", function () {\r",
									"    pm.response.to.have.status(200);\r",
									"});\r",
									"\r",
									"let jsonData = pm.response.json();\r",
									"\r",
									"pm.test(\"New category name is on the list\", function () {\r",
									"    pm.expect(pm.response.text()).to.include(pm.collectionVariables.get(\"newCategoryName\"));\r",
									"});"
								],
								"type": "text/javascript"
							}
						},
						{
							"listen": "prerequest",
							"script": {
								"id": "c3800342-b75e-457c-9a4f-d45c2a8b8591",
								"exec": [
									""
								],
								"type": "text/javascript"
							}
						}
					],
					"request": {
						"method": "GET",
						"header": [],
						"url": {
							"raw": "{{baseUrl}}/api/v1/admin/categories",
							"host": [
								"{{baseUrl}}"
							],
							"path": [
								"api",
								"v1",
								"admin",
								"categories"
							]
						}
					},
					"response": []
				},
				{
					"name": "Update category name",
					"event": [
						{
							"listen": "test",
							"script": {
								"id": "e8e323c2-3ae9-483a-8a87-84720918a15b",
								"exec": [
									"pm.test(\"Status code is 200\", function () {\r",
									"    pm.response.to.have.status(200);\r",
									"});\r",
									"\r",
									"let jsonData = pm.response.json();\r",
									"\r",
									"pm.collectionVariables.set(\"updatedCategoryName\", jsonData.category);\r",
									"\r",
									"pm.test(\"Check updated category name\", function () {\r",
									"    pm.expect(jsonData.category).not.to.eql(pm.collectionVariables.get(\"newCategoryName\"));\r",
									"    pm.expect(jsonData.category).to.eql(\"SPICES\");\r",
									"});"
								],
								"type": "text/javascript"
							}
						}
					],
					"request": {
						"method": "PUT",
						"header": [],
						"body": {
							"mode": "formdata",
							"formdata": [
								{
									"key": "category",
									"type": "file",
									"src": "updateCategory.json"
								},
								{
									"key": "file",
									"type": "file",
									"src": "spices.png"
								}
							],
							"options": {
								"formdata": {}
							}
						},
						"url": {
							"raw": "{{baseUrl}}/api/v1/admin/categories/{{newCategoryID}}",
							"host": [
								"{{baseUrl}}"
							],
							"path": [
								"api",
								"v1",
								"admin",
								"categories",
								"{{newCategoryID}}"
							]
						}
					},
					"response": []
				},
				{
					"name": "Get all categories",
					"event": [
						{
							"listen": "test",
							"script": {
								"id": "9d6f82ea-189b-4393-9ea8-fa9cca5cb352",
								"exec": [
									"pm.test(\"Status code is 200\", function () {\r",
									"    pm.response.to.have.status(200);\r",
									"});\r",
									"\r",
									"let jsonData = pm.response.json();\r",
									"\r",
									"pm.test(\"Updated category name is on the list\", function () {\r",
									"    pm.expect(pm.response.text()).to.include(pm.collectionVariables.get(\"updatedCategoryName\"));\r",
									"});"
								],
								"type": "text/javascript"
							}
						}
					],
					"request": {
						"method": "GET",
						"header": [],
						"url": {
							"raw": "{{baseUrl}}/api/v1/admin/categories",
							"host": [
								"{{baseUrl}}"
							],
							"path": [
								"api",
								"v1",
								"admin",
								"categories"
							]
						}
					},
					"response": []
				},
				{
					"name": "Delete category",
					"event": [
						{
							"listen": "test",
							"script": {
								"id": "08da4711-7218-47ae-bde3-34f1b8a1157c",
								"exec": [
									"pm.test(\"Status code is 200\", function () {\r",
									"    pm.response.to.have.status(200);\r",
									"});"
								],
								"type": "text/javascript"
							}
						}
					],
					"request": {
						"method": "DELETE",
						"header": [],
						"url": {
							"raw": "{{baseUrl}}/api/v1/admin/categories/{{newCategoryID}}",
							"host": [
								"{{baseUrl}}"
							],
							"path": [
								"api",
								"v1",
								"admin",
								"categories",
								"{{newCategoryID}}"
							]
						}
					},
					"response": []
				},
				{
					"name": "Confirm category deletion",
					"event": [
						{
							"listen": "test",
							"script": {
								"id": "449dc486-b5b5-431a-9658-008265b20bb0",
								"exec": [
									"pm.test(\"Status code is 404\", function () {\r",
									"    pm.response.to.have.status(404);\r",
									"});\r",
									"\r",
									"let jsonData = pm.response.json();\r",
									"\r",
									"pm.test(\"Check error message for deleted category\", function () {\r",
									"    pm.expect(jsonData.error).to.eql(\"Category with id \" + pm.collectionVariables.get(\"newCategoryID\") + \" not found\");\r",
									"});\r",
									"\r",
									"//clean-up\r",
									"pm.collectionVariables.unset(\"newCategoryID\");\r",
									"pm.collectionVariables.unset(\"newCategoryName\");\r",
									"pm.collectionVariables.unset(\"updatedCategoryName\");"
								],
								"type": "text/javascript"
							}
						}
					],
					"request": {
						"method": "DELETE",
						"header": [],
						"url": {
							"raw": "{{baseUrl}}/api/v1/admin/categories/{{newCategoryID}}",
							"host": [
								"{{baseUrl}}"
							],
							"path": [
								"api",
								"v1",
								"admin",
								"categories",
								"{{newCategoryID}}"
							]
						}
					},
					"response": []
				}
			],
			"event": [
				{
					"listen": "prerequest",
					"script": {
						"id": "8f657aaa-d914-4631-8e8e-4e253dcb5207",
						"type": "text/javascript",
						"exec": [
							""
						]
					}
				},
				{
					"listen": "test",
					"script": {
						"id": "5dd2f951-08d6-483a-a518-62c2a60f4902",
						"type": "text/javascript",
						"exec": [
							""
						]
					}
				}
			],
			"protocolProfileBehavior": {}
		},
		{
			"name": "Create and Update New Nationality as Admin",
			"item": [
				{
					"name": "Authenticate as Admin",
					"event": [
						{
							"listen": "test",
							"script": {
								"id": "ad71b94e-7237-49d9-ab46-06e42dfa768a",
								"exec": [
									"pm.test(\"Status code is 200\", function () {\r",
									"    pm.response.to.have.status(200);\r",
									"});\r",
									"\r",
									"pm.collectionVariables.set('SessionCookie', pm.cookies.get(\"JSESSIONID\"));\r",
									"\r",
									"console.log(pm.cookies.get(\"JSESSIONID\"));"
								],
								"type": "text/javascript"
							}
						}
					],
					"request": {
						"method": "POST",
						"header": [],
						"body": {
							"mode": "urlencoded",
							"urlencoded": [
								{
									"key": "username",
									"value": "{{adminUsername}}",
									"type": "text"
								},
								{
									"key": "password",
									"value": "{{adminPassword}}",
									"type": "text"
								}
							]
						},
						"url": {
							"raw": "{{baseUrl}}/authenticate",
							"host": [
								"{{baseUrl}}"
							],
							"path": [
								"authenticate"
							]
						}
					},
					"response": []
				},
				{
					"name": "Get all nationalities",
					"event": [
						{
							"listen": "test",
							"script": {
								"id": "f26a17b8-8d40-4d4a-961f-21b7b2415055",
								"exec": [
									"pm.test(\"Status code is 200\", function () {\r",
									"    pm.response.to.have.status(200);\r",
									"});\r",
									"\r",
									"let jsonData = pm.response.json();\r",
									"\r",
									"pm.test(\"Check nationality exists\", function () {\r",
									"    pm.expect(pm.response.text()).to.include(\"Bulgarian\");\r",
									"});\r",
									""
								],
								"type": "text/javascript"
							}
						}
					],
					"request": {
						"method": "GET",
						"header": [],
						"url": {
							"raw": "{{baseUrl}}/api/v1/admin/nationalities",
							"host": [
								"{{baseUrl}}"
							],
							"path": [
								"api",
								"v1",
								"admin",
								"nationalities"
							]
						}
					},
					"response": []
				},
				{
					"name": "Create new nationality",
					"event": [
						{
							"listen": "test",
							"script": {
								"id": "ca471956-8554-476e-9588-18da1ea1684c",
								"exec": [
									"pm.test(\"Successful POST request\", function () {\r",
									"    pm.expect(pm.response.code).to.eql(200);\r",
									"});\r",
									"\r",
									"let jsonData = pm.response.json();\r",
									"\r",
									"pm.collectionVariables.set(\"newNationalityID\", jsonData.id);\r",
									"pm.collectionVariables.set(\"newNationalityName\", jsonData.nationality);\r",
									"\r",
									"pm.test(\"Check new nationality name\", function () {\r",
									"    pm.expect(jsonData.nationality).to.eql(pm.collectionVariables.get(\"newNationalityName\"));\r",
									"});"
								],
								"type": "text/javascript"
							}
						}
					],
					"request": {
						"method": "POST",
						"header": [],
						"body": {
							"mode": "raw",
							"raw": "{\r\n    \"nationality\":\"{{$randomWord}}\"\r\n}",
							"options": {
								"raw": {
									"language": "json"
								}
							}
						},
						"url": {
							"raw": "{{baseUrl}}/api/v1/admin/nationalities",
							"host": [
								"{{baseUrl}}"
							],
							"path": [
								"api",
								"v1",
								"admin",
								"nationalities"
							]
						}
					},
					"response": []
				},
				{
					"name": "Get all nationalities",
					"event": [
						{
							"listen": "test",
							"script": {
								"id": "d20b5fda-696e-473a-b207-5bc0063d3fdc",
								"exec": [
									"pm.test(\"Status code is 200\", function () {\r",
									"    pm.response.to.have.status(200);\r",
									"});\r",
									"\r",
									"let jsonData = pm.response.json();\r",
									"\r",
									"pm.test(\"New nationality name is on the list\", function () {\r",
									"    pm.expect(pm.response.text()).to.include(pm.collectionVariables.get(\"newNationalityName\"));\r",
									"});"
								],
								"type": "text/javascript"
							}
						}
					],
					"request": {
						"method": "GET",
						"header": [],
						"url": {
							"raw": "{{baseUrl}}/api/v1/admin/nationalities",
							"host": [
								"{{baseUrl}}"
							],
							"path": [
								"api",
								"v1",
								"admin",
								"nationalities"
							]
						}
					},
					"response": []
				},
				{
					"name": "Update new nationality",
					"event": [
						{
							"listen": "test",
							"script": {
								"id": "2e234929-060d-42fe-a288-5f9276ddf87c",
								"exec": [
									"pm.test(\"Status code is 200\", function () {\r",
									"    pm.response.to.have.status(200);\r",
									"});\r",
									"\r",
									"let jsonData = pm.response.json();\r",
									"\r",
									"pm.collectionVariables.set(\"updatedNationalityName\", jsonData.nationality);\r",
									"\r",
									"pm.test(\"Check updated nationality name\", function () {\r",
									"    pm.expect(jsonData.nationality).not.to.eql(pm.collectionVariables.get(\"newNationalityName\"));\r",
									"});"
								],
								"type": "text/javascript"
							}
						}
					],
					"request": {
						"method": "PUT",
						"header": [],
						"body": {
							"mode": "raw",
							"raw": "{\r\n    \"id\":{{newNationalityID}},\r\n    \"nationality\":\"{{$randomWord}}\"\r\n}",
							"options": {
								"raw": {
									"language": "json"
								}
							}
						},
						"url": {
							"raw": "{{baseUrl}}/api/v1/admin/nationalities",
							"host": [
								"{{baseUrl}}"
							],
							"path": [
								"api",
								"v1",
								"admin",
								"nationalities"
							]
						}
					},
					"response": []
				},
				{
					"name": "Get all nationalities",
					"event": [
						{
							"listen": "test",
							"script": {
								"id": "82fade3b-b30c-433b-bc36-d4c0e54b800c",
								"exec": [
									"pm.test(\"Status code is 200\", function () {\r",
									"    pm.response.to.have.status(200);\r",
									"});\r",
									"\r",
									"let jsonData = pm.response.json();\r",
									"\r",
									"pm.test(\"Updated nationality name is on the list\", function () {\r",
									"    pm.expect(pm.response.text()).to.include(pm.collectionVariables.get(\"updatedNationalityName\"));\r",
									"});"
								],
								"type": "text/javascript"
							}
						}
					],
					"request": {
						"method": "GET",
						"header": [],
						"url": {
							"raw": "{{baseUrl}}/api/v1/admin/nationalities",
							"host": [
								"{{baseUrl}}"
							],
							"path": [
								"api",
								"v1",
								"admin",
								"nationalities"
							]
						}
					},
					"response": []
				},
				{
					"name": "Delete nationality",
					"event": [
						{
							"listen": "test",
							"script": {
								"id": "9acbd255-15ab-4999-ac93-fdb22743481e",
								"exec": [
									"pm.test(\"Status code is 200\", function () {\r",
									"    pm.response.to.have.status(200);\r",
									"});"
								],
								"type": "text/javascript"
							}
						}
					],
					"request": {
						"method": "DELETE",
						"header": [],
						"url": {
							"raw": "{{baseUrl}}/api/v1/admin/nationalities/{{newNationalityID}}",
							"host": [
								"{{baseUrl}}"
							],
							"path": [
								"api",
								"v1",
								"admin",
								"nationalities",
								"{{newNationalityID}}"
							]
						}
					},
					"response": []
				},
				{
					"name": "Confirm nationality deletion",
					"event": [
						{
							"listen": "test",
							"script": {
								"id": "70df2af6-c747-4793-9dd2-a7d5cbcd37d9",
								"exec": [
									"pm.test(\"Status code is 404\", function () {\r",
									"    pm.response.to.have.status(404);\r",
									"});\r",
									"\r",
									"let jsonData = pm.response.json();\r",
									"\r",
									"pm.test(\"Check error message for deleted nationality\", function () {\r",
									"    pm.expect(jsonData.error).to.eql(\"Nationality with id \" + pm.collectionVariables.get(\"newNationalityID\") + \" not found\");\r",
									"});\r",
									"\r",
									"//clean-up\r",
									"pm.collectionVariables.unset(\"newNationalityID\");\r",
									"pm.collectionVariables.unset(\"newNationalityName\");\r",
									"pm.collectionVariables.unset(\"updatedNationalityName\");"
								],
								"type": "text/javascript"
							}
						}
					],
					"request": {
						"method": "DELETE",
						"header": [],
						"url": {
							"raw": "{{baseUrl}}/api/v1/admin/nationalities/{{newNationalityID}}",
							"host": [
								"{{baseUrl}}"
							],
							"path": [
								"api",
								"v1",
								"admin",
								"nationalities",
								"{{newNationalityID}}"
							]
						}
					},
					"response": []
				}
			],
			"event": [
				{
					"listen": "prerequest",
					"script": {
						"id": "e37f6fa8-e692-4a5a-a1af-c57a6460da69",
						"type": "text/javascript",
						"exec": [
							""
						]
					}
				},
				{
					"listen": "test",
					"script": {
						"id": "c9f0e60f-ae8f-4775-a390-72b26c4f0cda",
						"type": "text/javascript",
						"exec": [
							""
						]
					}
				}
			],
			"protocolProfileBehavior": {}
		},
		{
			"name": "Update User Details as User",
			"item": [
				{
					"name": "Authenticate as User",
					"event": [
						{
							"listen": "test",
							"script": {
								"id": "de155c47-cda3-468e-bb6f-af7672999922",
								"exec": [
									"pm.test(\"Status code is 200\", function () {\r",
									"    pm.response.to.have.status(200);\r",
									"});\r",
									"\r",
									"pm.collectionVariables.set('SessionCookie', pm.cookies.get(\"JSESSIONID\"));\r",
									"\r",
									"console.log(pm.cookies.get(\"JSESSIONID\"));"
								],
								"type": "text/javascript"
							}
						}
					],
					"request": {
						"method": "POST",
						"header": [],
						"body": {
							"mode": "urlencoded",
							"urlencoded": [
								{
									"key": "username",
									"value": "{{username}}",
									"type": "text"
								},
								{
									"key": "password",
									"value": "{{password}}",
									"type": "text"
								}
							]
						},
						"url": {
							"raw": "{{baseUrl}}/authenticate",
							"host": [
								"{{baseUrl}}"
							],
							"path": [
								"authenticate"
							]
						}
					},
					"response": []
				},
				{
					"name": "Get list of all users",
					"event": [
						{
							"listen": "test",
							"script": {
								"id": "4227a160-71db-4f3e-bce0-bf7fc846b9d1",
								"exec": [
									"pm.test(\"Status code is 200\", function () {\r",
									"    pm.response.to.have.status(200);\r",
									"});\r",
									"\r",
									"pm.test(\"Check Admin email is present in user list\", function () {\r",
									"    pm.expect(pm.response.text()).to.include(\"stage.5.final.project@gmail.com\");\r",
									"});\r",
									"\r",
									"let jsonData = pm.response.json();\r",
									"pm.collectionVariables.set(\"userID\", jsonData[2].id);\r",
									"\r",
									"console.log(pm.collectionVariables.get(\"userID\"));"
								],
								"type": "text/javascript"
							}
						}
					],
					"request": {
						"method": "GET",
						"header": [],
						"url": {
							"raw": "{{baseUrl}}/api/v1/users",
							"host": [
								"{{baseUrl}}"
							],
							"path": [
								"api",
								"v1",
								"users"
							]
						}
					},
					"response": []
				},
				{
					"name": "Get user by ID",
					"event": [
						{
							"listen": "test",
							"script": {
								"id": "96f0a58d-9f3b-4402-802f-0e9e91930a18",
								"exec": [
									"pm.test(\"Status code is 200\", function () {\r",
									"    pm.response.to.have.status(200);\r",
									"});\r",
									"\r",
									"let jsonData = pm.response.json();\r",
									"\r",
									"pm.test(\"Check user's email\", function () {\r",
									"    pm.expect(jsonData.email).to.eql(\"abalas@abv.bg\");\r",
									"});\r",
									"\r",
									"pm.collectionVariables.set(\"userFirstName\", jsonData.firstName);\r",
									"pm.collectionVariables.set(\"userLastName\", jsonData.lastName);\r",
									"pm.collectionVariables.set(\"userDescription\", jsonData.description);\r",
									"pm.collectionVariables.set(\"userAge\", jsonData.age);"
								],
								"type": "text/javascript"
							}
						}
					],
					"request": {
						"method": "GET",
						"header": [],
						"url": {
							"raw": "{{baseUrl}}/api/v1/users/{{userID}}",
							"host": [
								"{{baseUrl}}"
							],
							"path": [
								"api",
								"v1",
								"users",
								"{{userID}}"
							]
						}
					},
					"response": []
				},
				{
					"name": "Update user details",
					"event": [
						{
							"listen": "test",
							"script": {
								"id": "609a6eb8-7a05-4b9e-a7b5-c5fb2ffa503f",
								"exec": [
									"pm.test(\"Status code is 200\", function () {\r",
									"    pm.response.to.have.status(200);\r",
									"});\r",
									"\r",
									"let jsonData = pm.response.json();\r",
									"\r",
									"pm.collectionVariables.set(\"tempFirstName\", jsonData.firstName);\r",
									"pm.collectionVariables.set(\"tempLastName\", jsonData.lastName);\r",
									"pm.collectionVariables.set(\"tempAge\", jsonData.age);\r",
									"pm.collectionVariables.set(\"tempDescription\", jsonData.description);"
								],
								"type": "text/javascript"
							}
						}
					],
					"request": {
						"method": "PUT",
						"header": [],
						"body": {
							"mode": "formdata",
							"formdata": [
								{
									"key": "user",
									"type": "file",
									"src": "newUserDetails.json"
								}
							]
						},
						"url": {
							"raw": "{{baseUrl}}/api/v1/users/{{userID}}",
							"host": [
								"{{baseUrl}}"
							],
							"path": [
								"api",
								"v1",
								"users",
								"{{userID}}"
							]
						}
					},
					"response": []
				},
				{
					"name": "Get updated user by ID",
					"event": [
						{
							"listen": "test",
							"script": {
								"id": "c4f266f4-1932-4821-9791-ca026f6cb7d4",
								"exec": [
									"pm.test(\"Status code is 200\", function () {\r",
									"    pm.response.to.have.status(200);\r",
									"});\r",
									"\r",
									"let jsonData = pm.response.json();\r",
									"\r",
									"pm.test(\"Check updated user details\", function () {\r",
									"    pm.expect(jsonData.firstName).to.eql(pm.collectionVariables.get(\"tempFirstName\"));\r",
									"    pm.expect(jsonData.lastName).to.eql(pm.collectionVariables.get(\"tempLastName\"));\r",
									"    pm.expect(jsonData.age).to.eql(pm.collectionVariables.get(\"tempAge\"));\r",
									"    pm.expect(jsonData.description).to.eql(pm.collectionVariables.get(\"tempDescription\"));\r",
									"});"
								],
								"type": "text/javascript"
							}
						}
					],
					"request": {
						"method": "GET",
						"header": [],
						"url": {
							"raw": "{{baseUrl}}/api/v1/users/{{userID}}",
							"host": [
								"{{baseUrl}}"
							],
							"path": [
								"api",
								"v1",
								"users",
								"{{userID}}"
							]
						}
					},
					"response": []
				},
				{
					"name": "Set user details back to default",
					"event": [
						{
							"listen": "test",
							"script": {
								"id": "5796950a-e3c3-4c85-ac8b-f78e3064e965",
								"exec": [
									"pm.test(\"Status code is 200\", function () {\r",
									"    pm.response.to.have.status(200);\r",
									"});"
								],
								"type": "text/javascript"
							}
						}
					],
					"request": {
						"method": "PUT",
						"header": [],
						"body": {
							"mode": "formdata",
							"formdata": [
								{
									"key": "user",
									"type": "file",
									"src": "defaultUserDetails.json"
								}
							]
						},
						"url": {
							"raw": "{{baseUrl}}/api/v1/users/{{userID}}",
							"host": [
								"{{baseUrl}}"
							],
							"path": [
								"api",
								"v1",
								"users",
								"{{userID}}"
							]
						}
					},
					"response": []
				},
				{
					"name": "Get user by ID",
					"event": [
						{
							"listen": "test",
							"script": {
								"id": "ba72cc53-0281-47d3-bd0c-236ce52a1a87",
								"exec": [
									"pm.test(\"Status code is 200\", function () {\r",
									"    pm.response.to.have.status(200);\r",
									"});\r",
									"\r",
									"let jsonData = pm.response.json();\r",
									"\r",
									"pm.test(\"Check default user details\", function () {\r",
									"    pm.expect(jsonData.firstName).to.eql(pm.collectionVariables.get(\"userFirstName\"));\r",
									"    pm.expect(jsonData.lastName).to.eql(pm.collectionVariables.get(\"userLastName\"));\r",
									"    pm.expect(jsonData.age).to.eql(pm.collectionVariables.get(\"userAge\"));\r",
									"    pm.expect(jsonData.description).to.eql(pm.collectionVariables.get(\"userDescription\"));\r",
									"});\r",
									"\r",
									"//clean-up\r",
									"pm.collectionVariables.unset(\"userID\");\r",
									"pm.collectionVariables.unset(\"userFirstName\");\r",
									"pm.collectionVariables.unset(\"userLastName\");\r",
									"pm.collectionVariables.unset(\"userAge\");\r",
									"pm.collectionVariables.unset(\"userDescription\");\r",
									"pm.collectionVariables.unset(\"tempFirstName\");\r",
									"pm.collectionVariables.unset(\"tempLastName\");\r",
									"pm.collectionVariables.unset(\"tempAge\");\r",
									"pm.collectionVariables.unset(\"tempDescription\");"
								],
								"type": "text/javascript"
							}
						}
					],
					"request": {
						"method": "GET",
						"header": [],
						"url": {
							"raw": "{{baseUrl}}/api/v1/users/{{userID}}",
							"host": [
								"{{baseUrl}}"
							],
							"path": [
								"api",
								"v1",
								"users",
								"{{userID}}"
							]
						}
					},
					"response": []
				}
			],
			"event": [
				{
					"listen": "prerequest",
					"script": {
						"id": "341dc6d7-1643-4ed0-9a22-eaf866bec540",
						"type": "text/javascript",
						"exec": [
							""
						]
					}
				},
				{
					"listen": "test",
					"script": {
						"id": "f1d3410c-48db-43ad-9cdc-e12cb128d2c0",
						"type": "text/javascript",
						"exec": [
							""
						]
					}
				}
			],
			"protocolProfileBehavior": {}
		},
		{
			"name": "Create, Like and Update a Post",
			"item": [
				{
					"name": "Authenticate as User",
					"event": [
						{
							"listen": "test",
							"script": {
								"id": "0529f063-7536-4bc0-8136-f4b6c47ef792",
								"exec": [
									"pm.test(\"Status code is 200\", function () {\r",
									"    pm.response.to.have.status(200);\r",
									"});\r",
									"\r",
									"pm.collectionVariables.set('SessionCookie', pm.cookies.get(\"JSESSIONID\"));\r",
									"\r",
									"console.log(pm.cookies.get(\"JSESSIONID\"));"
								],
								"type": "text/javascript"
							}
						}
					],
					"request": {
						"method": "POST",
						"header": [],
						"body": {
							"mode": "urlencoded",
							"urlencoded": [
								{
									"key": "username",
									"value": "{{username}}",
									"type": "text"
								},
								{
									"key": "password",
									"value": "{{password}}",
									"type": "text"
								}
							]
						},
						"url": {
							"raw": "{{baseUrl}}/authenticate",
							"host": [
								"{{baseUrl}}"
							],
							"path": [
								"authenticate"
							]
						}
					},
					"response": []
				},
				{
					"name": "Get list of all posts",
					"event": [
						{
							"listen": "test",
							"script": {
								"id": "b7265f7e-b9b1-4192-9719-48540a189282",
								"exec": [
									"pm.test(\"Status code is 200\", function () {\r",
									"    pm.response.to.have.status(200);\r",
									"});"
								],
								"type": "text/javascript"
							}
						}
					],
					"request": {
						"method": "GET",
						"header": [],
						"url": {
							"raw": "{{baseUrl}}/api/v1/posts?page=0&size=999&title=&category=&sort=",
							"host": [
								"{{baseUrl}}"
							],
							"path": [
								"api",
								"v1",
								"posts"
							],
							"query": [
								{
									"key": "page",
									"value": "0"
								},
								{
									"key": "size",
									"value": "999"
								},
								{
									"key": "title",
									"value": ""
								},
								{
									"key": "category",
									"value": ""
								},
								{
									"key": "sort",
									"value": ""
								}
							]
						}
					},
					"response": []
				},
				{
					"name": "Create post",
					"event": [
						{
							"listen": "test",
							"script": {
								"id": "424619a1-8b56-4192-a8eb-e94561e390ef",
								"exec": [
									"pm.test(\"Status code is 200\", function () {\r",
									"    pm.response.to.have.status(200);\r",
									"});\r",
									"\r",
									"let jsonData = pm.response.json();\r",
									"\r",
									"pm.collectionVariables.set(\"postID\", jsonData.id);\r",
									"pm.collectionVariables.set(\"postTitle\", jsonData.title);"
								],
								"type": "text/javascript"
							}
						}
					],
					"request": {
						"method": "POST",
						"header": [],
						"body": {
							"mode": "formdata",
							"formdata": [
								{
									"key": "post",
									"type": "file",
									"src": "newPost.json"
								}
							]
						},
						"url": {
							"raw": "{{baseUrl}}/api/v1/posts",
							"host": [
								"{{baseUrl}}"
							],
							"path": [
								"api",
								"v1",
								"posts"
							]
						}
					},
					"response": []
				},
				{
					"name": "Get post by ID",
					"event": [
						{
							"listen": "test",
							"script": {
								"id": "8930dff5-5a61-477a-83d4-69bfa9d3623f",
								"exec": [
									"pm.test(\"Status code is 200\", function () {\r",
									"    pm.response.to.have.status(200);\r",
									"});\r",
									"\r",
									"let jsonData = pm.response.json();\r",
									"\r",
									"pm.test(\"Check post ID\", function () {\r",
									"    pm.expect(jsonData.id).to.eql(pm.collectionVariables.get(\"postID\"));\r",
									"});"
								],
								"type": "text/javascript"
							}
						}
					],
					"request": {
						"method": "GET",
						"header": [],
						"url": {
							"raw": "{{baseUrl}}/api/v1/posts/{{postID}}",
							"host": [
								"{{baseUrl}}"
							],
							"path": [
								"api",
								"v1",
								"posts",
								"{{postID}}"
							]
						}
					},
					"response": []
				},
				{
					"name": "Show post likes",
					"event": [
						{
							"listen": "test",
							"script": {
								"id": "f4f30e58-f44b-4d8b-ad6f-30fb506b20a9",
								"exec": [
									"pm.test(\"Status code is 200\", function () {\r",
									"    pm.response.to.have.status(200);\r",
									"});\r",
									"\r",
									"let jsonData = pm.response.json();\r",
									"\r",
									"pm.test(\"Check post has zero likes\", function () {\r",
									"    pm.expect(jsonData).to.eql(0);\r",
									"});"
								],
								"type": "text/javascript"
							}
						}
					],
					"request": {
						"method": "GET",
						"header": [],
						"url": {
							"raw": "{{baseUrl}}/api/v1/posts/{{postID}}/likes",
							"host": [
								"{{baseUrl}}"
							],
							"path": [
								"api",
								"v1",
								"posts",
								"{{postID}}",
								"likes"
							]
						}
					},
					"response": []
				},
				{
					"name": "Like post",
					"event": [
						{
							"listen": "test",
							"script": {
								"id": "7ec27c8e-760f-4b03-a564-b8e56ce83809",
								"exec": [
									"pm.test(\"Status code is 200\", function () {\r",
									"    pm.response.to.have.status(200);\r",
									"});"
								],
								"type": "text/javascript"
							}
						}
					],
					"request": {
						"method": "POST",
						"header": [],
						"url": {
							"raw": "{{baseUrl}}/api/v1/posts/{{postID}}/likes",
							"host": [
								"{{baseUrl}}"
							],
							"path": [
								"api",
								"v1",
								"posts",
								"{{postID}}",
								"likes"
							]
						}
					},
					"response": []
				},
				{
					"name": "Show post likes",
					"event": [
						{
							"listen": "test",
							"script": {
								"id": "3d0b2215-da5b-47dc-bb22-acdcd2c82ce2",
								"exec": [
									"pm.test(\"Status code is 200\", function () {\r",
									"    pm.response.to.have.status(200);\r",
									"});\r",
									"\r",
									"let jsonData = pm.response.json();\r",
									"\r",
									"pm.test(\"Check post has one like\", function () {\r",
									"    pm.expect(jsonData).to.eql(1);\r",
									"});"
								],
								"type": "text/javascript"
							}
						}
					],
					"request": {
						"method": "GET",
						"header": [],
						"url": {
							"raw": "{{baseUrl}}/api/v1/posts/{{postID}}/likes",
							"host": [
								"{{baseUrl}}"
							],
							"path": [
								"api",
								"v1",
								"posts",
								"{{postID}}",
								"likes"
							]
						}
					},
					"response": []
				},
				{
					"name": "Dislike post",
					"event": [
						{
							"listen": "test",
							"script": {
								"id": "5a599573-29dc-43df-86cd-fa1e99abd331",
								"exec": [
									"pm.test(\"Status code is 200\", function () {\r",
									"    pm.response.to.have.status(200);\r",
									"});"
								],
								"type": "text/javascript"
							}
						}
					],
					"request": {
						"method": "POST",
						"header": [],
						"url": {
							"raw": "{{baseUrl}}/api/v1/posts/{{postID}}/likes",
							"host": [
								"{{baseUrl}}"
							],
							"path": [
								"api",
								"v1",
								"posts",
								"{{postID}}",
								"likes"
							]
						}
					},
					"response": []
				},
				{
					"name": "Show post likes",
					"event": [
						{
							"listen": "test",
							"script": {
								"id": "ffd7749a-9237-4d1b-a1c8-da9d343547c4",
								"exec": [
									"pm.test(\"Status code is 200\", function () {\r",
									"    pm.response.to.have.status(200);\r",
									"});\r",
									"\r",
									"let jsonData = pm.response.json();\r",
									"\r",
									"pm.test(\"Check post has zero likes\", function () {\r",
									"    pm.expect(jsonData).to.eql(0);\r",
									"});"
								],
								"type": "text/javascript"
							}
						}
					],
					"request": {
						"method": "GET",
						"header": [],
						"url": {
							"raw": "{{baseUrl}}/api/v1/posts/{{postID}}/likes",
							"host": [
								"{{baseUrl}}"
							],
							"path": [
								"api",
								"v1",
								"posts",
								"{{postID}}",
								"likes"
							]
						}
					},
					"response": []
				},
				{
					"name": "Authenticate as Admin",
					"event": [
						{
							"listen": "test",
							"script": {
								"id": "cd5aca90-2356-4ea6-a901-8ae0bab29435",
								"exec": [
									"pm.test(\"Status code is 200\", function () {\r",
									"    pm.response.to.have.status(200);\r",
									"});\r",
									"\r",
									"pm.collectionVariables.set('SessionCookie', pm.cookies.get(\"JSESSIONID\"));\r",
									"\r",
									"console.log(pm.cookies.get(\"JSESSIONID\"));"
								],
								"type": "text/javascript"
							}
						}
					],
					"request": {
						"method": "POST",
						"header": [],
						"body": {
							"mode": "urlencoded",
							"urlencoded": [
								{
									"key": "username",
									"value": "{{adminUsername}}",
									"type": "text"
								},
								{
									"key": "password",
									"value": "{{adminPassword}}",
									"type": "text"
								}
							]
						},
						"url": {
							"raw": "{{baseUrl}}/authenticate",
							"host": [
								"{{baseUrl}}"
							],
							"path": [
								"authenticate"
							]
						}
					},
					"response": []
				},
				{
					"name": "Update post",
					"event": [
						{
							"listen": "test",
							"script": {
								"id": "b5639963-d851-45a5-8167-c83cee60afe9",
								"exec": [
									"pm.test(\"Status code is 200\", function () {\r",
									"    pm.response.to.have.status(200);\r",
									"});"
								],
								"type": "text/javascript"
							}
						}
					],
					"request": {
						"method": "PUT",
						"header": [],
						"body": {
							"mode": "formdata",
							"formdata": [
								{
									"key": "post",
									"type": "file",
									"src": "updatedPost.json"
								}
							]
						},
						"url": {
							"raw": "{{baseUrl}}/api/v1/posts/{{postID}}",
							"host": [
								"{{baseUrl}}"
							],
							"path": [
								"api",
								"v1",
								"posts",
								"{{postID}}"
							]
						}
					},
					"response": []
				},
				{
					"name": "Get post by ID",
					"event": [
						{
							"listen": "test",
							"script": {
								"id": "713b82a0-9c48-4770-8831-52fbb68f01eb",
								"exec": [
									"pm.test(\"Status code is 200\", function () {\r",
									"    pm.response.to.have.status(200);\r",
									"});\r",
									"\r",
									"let jsonData = pm.response.json();\r",
									"\r",
									"pm.test(\"Check updated post title\", function () {\r",
									"    pm.expect(jsonData.title).not.to.eql(pm.collectionVariables.get(\"postTitle\"));\r",
									"});"
								],
								"type": "text/javascript"
							}
						}
					],
					"request": {
						"method": "GET",
						"header": [],
						"url": {
							"raw": "{{baseUrl}}/api/v1/posts/{{postID}}",
							"host": [
								"{{baseUrl}}"
							],
							"path": [
								"api",
								"v1",
								"posts",
								"{{postID}}"
							]
						}
					},
					"response": []
				},
				{
					"name": "Delete post",
					"event": [
						{
							"listen": "test",
							"script": {
								"id": "4fe1f160-8ff2-41df-a971-c3dd181424f1",
								"exec": [
									"pm.test(\"Status code is 200\", function () {\r",
									"    pm.response.to.have.status(200);\r",
									"});"
								],
								"type": "text/javascript"
							}
						}
					],
					"request": {
						"method": "DELETE",
						"header": [],
						"url": {
							"raw": "{{baseUrl}}/api/v1/posts/{{postID}}",
							"host": [
								"{{baseUrl}}"
							],
							"path": [
								"api",
								"v1",
								"posts",
								"{{postID}}"
							]
						}
					},
					"response": []
				},
				{
					"name": "Confirm post deletion",
					"event": [
						{
							"listen": "test",
							"script": {
								"id": "8f97d8ed-ab65-434b-9097-036702b92535",
								"exec": [
									"pm.test(\"Status code is 404\", function () {\r",
									"    pm.response.to.have.status(404);\r",
									"});\r",
									"\r",
									"let jsonData = pm.response.json();\r",
									"\r",
									"pm.test(\"Check error message for deleted post\", function () {\r",
									"    pm.expect(jsonData.error).to.eql(\"Post with id \" + pm.collectionVariables.get(\"postID\") + \" not found\");\r",
									"});\r",
									"\r",
									"//clean-up\r",
									"pm.collectionVariables.unset(\"postID\");\r",
									"pm.collectionVariables.unset(\"postTitle\");"
								],
								"type": "text/javascript"
							}
						}
					],
					"request": {
						"method": "GET",
						"header": [],
						"url": {
							"raw": "{{baseUrl}}/api/v1/posts/{{postID}}",
							"host": [
								"{{baseUrl}}"
							],
							"path": [
								"api",
								"v1",
								"posts",
								"{{postID}}"
							]
						}
					},
					"response": []
				}
			],
			"protocolProfileBehavior": {}
		},
		{
			"name": "Create, Like and Update a Comment",
			"item": [
				{
					"name": "Authenticate as User",
					"event": [
						{
							"listen": "test",
							"script": {
								"id": "edacfd7b-b6fa-412a-b912-7b8e4ac53b4b",
								"exec": [
									"pm.test(\"Status code is 200\", function () {\r",
									"    pm.response.to.have.status(200);\r",
									"});\r",
									"\r",
									"pm.collectionVariables.set('SessionCookie', pm.cookies.get(\"JSESSIONID\"));\r",
									"\r",
									"console.log(pm.cookies.get(\"JSESSIONID\"));"
								],
								"type": "text/javascript"
							}
						}
					],
					"request": {
						"method": "POST",
						"header": [],
						"body": {
							"mode": "urlencoded",
							"urlencoded": [
								{
									"key": "username",
									"value": "{{username}}",
									"type": "text"
								},
								{
									"key": "password",
									"value": "{{password}}",
									"type": "text"
								}
							]
						},
						"url": {
							"raw": "{{baseUrl}}/authenticate",
							"host": [
								"{{baseUrl}}"
							],
							"path": [
								"authenticate"
							]
						}
					},
					"response": []
				},
				{
					"name": "Get list of all posts",
					"event": [
						{
							"listen": "test",
							"script": {
								"id": "21791749-cb9b-4a0a-b60e-79e2f740e65b",
								"exec": [
									"pm.test(\"Status code is 200\", function () {\r",
									"    pm.response.to.have.status(200);\r",
									"});"
								],
								"type": "text/javascript"
							}
						}
					],
					"request": {
						"method": "GET",
						"header": [],
						"url": {
							"raw": "{{baseUrl}}/api/v1/posts?page=0&size=999&title=&category=&sort=",
							"host": [
								"{{baseUrl}}"
							],
							"path": [
								"api",
								"v1",
								"posts"
							],
							"query": [
								{
									"key": "page",
									"value": "0"
								},
								{
									"key": "size",
									"value": "999"
								},
								{
									"key": "title",
									"value": ""
								},
								{
									"key": "category",
									"value": ""
								},
								{
									"key": "sort",
									"value": ""
								}
							]
						}
					},
					"response": []
				},
				{
					"name": "Create post",
					"event": [
						{
							"listen": "test",
							"script": {
								"id": "650eacb1-b027-45b8-b38c-f5d28e5517ea",
								"exec": [
									"pm.test(\"Status code is 200\", function () {\r",
									"    pm.response.to.have.status(200);\r",
									"});\r",
									"\r",
									"let jsonData = pm.response.json();\r",
									"\r",
									"pm.collectionVariables.set(\"postID\", jsonData.id);"
								],
								"type": "text/javascript"
							}
						}
					],
					"request": {
						"method": "POST",
						"header": [],
						"body": {
							"mode": "formdata",
							"formdata": [
								{
									"key": "post",
									"type": "file",
									"src": "newPost.json"
								}
							]
						},
						"url": {
							"raw": "{{baseUrl}}/api/v1/posts",
							"host": [
								"{{baseUrl}}"
							],
							"path": [
								"api",
								"v1",
								"posts"
							]
						}
					},
					"response": []
				},
				{
					"name": "Get post by ID",
					"event": [
						{
							"listen": "test",
							"script": {
								"id": "80ccaf63-02e4-4e73-9fe3-31215bb2394e",
								"exec": [
									"pm.test(\"Status code is 200\", function () {\r",
									"    pm.response.to.have.status(200);\r",
									"});\r",
									"\r",
									"let jsonData = pm.response.json();\r",
									"\r",
									"pm.test(\"Check post ID\", function () {\r",
									"    pm.expect(jsonData.id).to.eql(pm.collectionVariables.get(\"postID\"));\r",
									"});"
								],
								"type": "text/javascript"
							}
						}
					],
					"request": {
						"method": "GET",
						"header": [],
						"url": {
							"raw": "{{baseUrl}}/api/v1/posts/{{postID}}",
							"host": [
								"{{baseUrl}}"
							],
							"path": [
								"api",
								"v1",
								"posts",
								"{{postID}}"
							]
						}
					},
					"response": []
				},
				{
					"name": "Get list of all comments on post",
					"event": [
						{
							"listen": "test",
							"script": {
								"id": "4db4760b-2767-4b10-b8ff-1dddbcfa8ad8",
								"exec": [
									"pm.test(\"Status code is 200\", function () {\r",
									"    pm.response.to.have.status(200);\r",
									"});\r",
									"\r",
									"pm.test(\"Check no comments present on post\", function () {\r",
									"    var jsonData = pm.response.json();\r",
									"    pm.expect(jsonData).to.eql([]);\r",
									"});"
								],
								"type": "text/javascript"
							}
						}
					],
					"request": {
						"method": "GET",
						"header": [],
						"url": {
							"raw": "{{baseUrl}}/api/v1/posts/{{postID}}/comments",
							"host": [
								"{{baseUrl}}"
							],
							"path": [
								"api",
								"v1",
								"posts",
								"{{postID}}",
								"comments"
							]
						}
					},
					"response": []
				},
				{
					"name": "Add comment to post",
					"event": [
						{
							"listen": "test",
							"script": {
								"id": "e1fd18ef-9976-4546-bf86-5d88b77be73c",
								"exec": [
									"pm.test(\"Status code is 200\", function () {\r",
									"    pm.response.to.have.status(200);\r",
									"});\r",
									"\r",
									"let jsonData = pm.response.json();\r",
									"\r",
									"pm.collectionVariables.set(\"commentID\", jsonData.id);\r",
									"pm.collectionVariables.set(\"commentDescription\", jsonData.description);"
								],
								"type": "text/javascript"
							}
						}
					],
					"request": {
						"method": "POST",
						"header": [],
						"body": {
							"mode": "raw",
							"raw": "{\r\n    \"comment\":\"{{$randomLoremText}}\"\r\n}",
							"options": {
								"raw": {
									"language": "json"
								}
							}
						},
						"url": {
							"raw": "{{baseUrl}}/api/v1/posts/{{postID}}/comments",
							"host": [
								"{{baseUrl}}"
							],
							"path": [
								"api",
								"v1",
								"posts",
								"{{postID}}",
								"comments"
							]
						}
					},
					"response": []
				},
				{
					"name": "Get comment by ID",
					"event": [
						{
							"listen": "test",
							"script": {
								"id": "f58c78fb-0949-4534-b207-a8b89a27e863",
								"exec": [
									"pm.test(\"Status code is 200\", function () {\r",
									"    pm.response.to.have.status(200);\r",
									"});\r",
									"\r",
									"let jsonData = pm.response.json();\r",
									"\r",
									"pm.test(\"Check comment ID and description\", function () {\r",
									"    pm.expect(jsonData.id).to.eql(pm.collectionVariables.get(\"commentID\"));\r",
									"    pm.expect(jsonData.description).to.eql(pm.collectionVariables.get(\"commentDescription\"));\r",
									"});"
								],
								"type": "text/javascript"
							}
						}
					],
					"request": {
						"method": "GET",
						"header": [],
						"url": {
							"raw": "{{baseUrl}}/api/v1/comments/{{commentID}}",
							"host": [
								"{{baseUrl}}"
							],
							"path": [
								"api",
								"v1",
								"comments",
								"{{commentID}}"
							]
						}
					},
					"response": []
				},
				{
					"name": "Authenticate as Admin",
					"event": [
						{
							"listen": "test",
							"script": {
								"id": "2ea04734-a4cb-4507-8a14-926b6bf7cef9",
								"exec": [
									"pm.test(\"Status code is 200\", function () {\r",
									"    pm.response.to.have.status(200);\r",
									"});\r",
									"\r",
									"pm.collectionVariables.set('SessionCookie', pm.cookies.get(\"JSESSIONID\"));\r",
									"\r",
									"console.log(pm.cookies.get(\"JSESSIONID\"));"
								],
								"type": "text/javascript"
							}
						}
					],
					"request": {
						"method": "POST",
						"header": [],
						"body": {
							"mode": "urlencoded",
							"urlencoded": [
								{
									"key": "username",
									"value": "{{adminUsername}}",
									"type": "text"
								},
								{
									"key": "password",
									"value": "{{adminPassword}}",
									"type": "text"
								}
							]
						},
						"url": {
							"raw": "{{baseUrl}}/authenticate",
							"host": [
								"{{baseUrl}}"
							],
							"path": [
								"authenticate"
							]
						}
					},
					"response": []
				},
				{
					"name": "Update comment",
					"event": [
						{
							"listen": "test",
							"script": {
								"id": "3fa29139-7f83-4cba-9b77-d238ba73ee7f",
								"exec": [
									"pm.test(\"Status code is 200\", function () {\r",
									"    pm.response.to.have.status(200);\r",
									"});\r",
									"\r",
									"let jsonData = pm.response.json();\r",
									"\r",
									"pm.collectionVariables.set(\"updatedCommentDescription\", jsonData.description);"
								],
								"type": "text/javascript"
							}
						}
					],
					"request": {
						"method": "PUT",
						"header": [],
						"body": {
							"mode": "raw",
							"raw": "{\r\n    \"comment\":\"{{$randomProductName}}\"\r\n}",
							"options": {
								"raw": {
									"language": "json"
								}
							}
						},
						"url": {
							"raw": "{{baseUrl}}/api/v1/comments/{{commentID}}",
							"host": [
								"{{baseUrl}}"
							],
							"path": [
								"api",
								"v1",
								"comments",
								"{{commentID}}"
							]
						}
					},
					"response": []
				},
				{
					"name": "Get comment by ID",
					"event": [
						{
							"listen": "test",
							"script": {
								"id": "ae2f317f-68a0-4b5f-ab1f-b1fcffc0d734",
								"exec": [
									"pm.test(\"Status code is 200\", function () {\r",
									"    pm.response.to.have.status(200);\r",
									"});\r",
									"\r",
									"let jsonData = pm.response.json();\r",
									"\r",
									"pm.test(\"Check updated comment ID and description\", function () {\r",
									"    pm.expect(jsonData.id).to.eql(pm.collectionVariables.get(\"commentID\"));\r",
									"    pm.expect(jsonData.description).to.eql(pm.collectionVariables.get(\"updatedCommentDescription\"));\r",
									"});"
								],
								"type": "text/javascript"
							}
						}
					],
					"request": {
						"method": "GET",
						"header": [],
						"url": {
							"raw": "{{baseUrl}}/api/v1/comments/{{commentID}}",
							"host": [
								"{{baseUrl}}"
							],
							"path": [
								"api",
								"v1",
								"comments",
								"{{commentID}}"
							]
						}
					},
					"response": []
				},
				{
					"name": "Get comment likes",
					"event": [
						{
							"listen": "test",
							"script": {
								"id": "3291ee97-ddda-4932-8da7-34f6d07502e1",
								"exec": [
									"pm.test(\"Status code is 200\", function () {\r",
									"    pm.response.to.have.status(200);\r",
									"});\r",
									"\r",
									"let jsonData = pm.response.json();\r",
									"\r",
									"pm.test(\"Confirm comment has zero likes\", function () {\r",
									"    pm.expect(jsonData).to.eql(0);\r",
									"});"
								],
								"type": "text/javascript"
							}
						}
					],
					"request": {
						"method": "GET",
						"header": [],
						"url": {
							"raw": "{{baseUrl}}/api/v1/comments/{{commentID}}/likes",
							"host": [
								"{{baseUrl}}"
							],
							"path": [
								"api",
								"v1",
								"comments",
								"{{commentID}}",
								"likes"
							]
						}
					},
					"response": []
				},
				{
					"name": "Like comment",
					"event": [
						{
							"listen": "test",
							"script": {
								"id": "8afb4779-09e9-4ba8-91bf-df82b332d0c4",
								"exec": [
									"pm.test(\"Status code is 200\", function () {\r",
									"    pm.response.to.have.status(200);\r",
									"});"
								],
								"type": "text/javascript"
							}
						}
					],
					"request": {
						"method": "POST",
						"header": [],
						"url": {
							"raw": "{{baseUrl}}/api/v1/comments/{{commentID}}/likes",
							"host": [
								"{{baseUrl}}"
							],
							"path": [
								"api",
								"v1",
								"comments",
								"{{commentID}}",
								"likes"
							]
						}
					},
					"response": []
				},
				{
					"name": "Get comment likes",
					"event": [
						{
							"listen": "test",
							"script": {
								"id": "52e89fcf-0694-4005-bb23-747e005d1d7d",
								"exec": [
									"pm.test(\"Status code is 200\", function () {\r",
									"    pm.response.to.have.status(200);\r",
									"});\r",
									"\r",
									"let jsonData = pm.response.json();\r",
									"\r",
									"pm.test(\"Confirm comment has one like\", function () {\r",
									"    pm.expect(jsonData).to.eql(1);\r",
									"});"
								],
								"type": "text/javascript"
							}
						}
					],
					"request": {
						"method": "GET",
						"header": [],
						"url": {
							"raw": "{{baseUrl}}/api/v1/comments/{{commentID}}/likes",
							"host": [
								"{{baseUrl}}"
							],
							"path": [
								"api",
								"v1",
								"comments",
								"{{commentID}}",
								"likes"
							]
						}
					},
					"response": []
				},
				{
					"name": "Dislike comment",
					"event": [
						{
							"listen": "test",
							"script": {
								"id": "53244609-4155-429e-a341-183692a2a64d",
								"exec": [
									"pm.test(\"Status code is 200\", function () {\r",
									"    pm.response.to.have.status(200);\r",
									"});"
								],
								"type": "text/javascript"
							}
						}
					],
					"request": {
						"method": "POST",
						"header": [],
						"url": {
							"raw": "{{baseUrl}}/api/v1/comments/{{commentID}}/likes",
							"host": [
								"{{baseUrl}}"
							],
							"path": [
								"api",
								"v1",
								"comments",
								"{{commentID}}",
								"likes"
							]
						}
					},
					"response": []
				},
				{
					"name": "Get comment likes",
					"event": [
						{
							"listen": "test",
							"script": {
								"id": "3b4d1b7c-3aeb-4a6e-9fa0-d7c641cf3a87",
								"exec": [
									"pm.test(\"Status code is 200\", function () {\r",
									"    pm.response.to.have.status(200);\r",
									"});\r",
									"\r",
									"let jsonData = pm.response.json();\r",
									"\r",
									"pm.test(\"Confirm comment has zero likes\", function () {\r",
									"    pm.expect(jsonData).to.eql(0);\r",
									"});"
								],
								"type": "text/javascript"
							}
						}
					],
					"request": {
						"method": "GET",
						"header": [],
						"url": {
							"raw": "{{baseUrl}}/api/v1/comments/{{commentID}}/likes",
							"host": [
								"{{baseUrl}}"
							],
							"path": [
								"api",
								"v1",
								"comments",
								"{{commentID}}",
								"likes"
							]
						}
					},
					"response": []
				},
				{
					"name": "Get last 5 comments",
					"event": [
						{
							"listen": "test",
							"script": {
								"id": "b7e551a1-01a5-4c5e-915e-234b9e40795d",
								"exec": [
									"pm.test(\"Status code is 200\", function () {\r",
									"    pm.response.to.have.status(200);\r",
									"});\r",
									"\r",
									"pm.test(\"Check comment is present in last 5 comments\", function () {\r",
									"    pm.expect(pm.response.text()).to.include(pm.collectionVariables.get(\"updatedCommentDescription\"));\r",
									"});"
								],
								"type": "text/javascript"
							}
						}
					],
					"request": {
						"method": "GET",
						"header": [],
						"url": {
							"raw": "{{baseUrl}}/api/v1/posts/{{postID}}/latest_comments",
							"host": [
								"{{baseUrl}}"
							],
							"path": [
								"api",
								"v1",
								"posts",
								"{{postID}}",
								"latest_comments"
							]
						}
					},
					"response": []
				},
				{
					"name": "Delete comment ",
					"event": [
						{
							"listen": "test",
							"script": {
								"id": "0a415780-8f83-42cd-ae34-4618d42546fe",
								"exec": [
									"pm.test(\"Status code is 200\", function () {\r",
									"    pm.response.to.have.status(200);\r",
									"});\r",
									"\r",
									"let jsonData = pm.response.json();\r",
									"\r",
									"pm.test(\"Comment is deleted\", function () {\r",
									"    pm.expect(jsonData).to.eql([]);\r",
									"});"
								],
								"type": "text/javascript"
							}
						}
					],
					"request": {
						"method": "DELETE",
						"header": [],
						"url": {
							"raw": "{{baseUrl}}/api/v1/comments/{{commentID}}",
							"host": [
								"{{baseUrl}}"
							],
							"path": [
								"api",
								"v1",
								"comments",
								"{{commentID}}"
							]
						}
					},
					"response": []
				},
				{
					"name": "Confirm comment deletion",
					"event": [
						{
							"listen": "test",
							"script": {
								"id": "b05eac81-1178-488d-8ac2-b6dcf21176e6",
								"exec": [
									"pm.test(\"Status code is 404\", function () {\r",
									"    pm.response.to.have.status(404);\r",
									"});\r",
									"\r",
									"let jsonData = pm.response.json();\r",
									"\r",
									"pm.test(\"Check error message for deleted comment\", function () {\r",
									"    pm.expect(jsonData.error).to.eql(\"Comment with id \" + pm.collectionVariables.get(\"commentID\") + \" not found\");\r",
									"});\r",
									"\r",
									"//clean-up\r",
									"pm.collectionVariables.unset(\"commentID\");\r",
									"pm.collectionVariables.unset(\"commentDescription\");\r",
									"pm.collectionVariables.unset(\"updatedCommentDescription\");"
								],
								"type": "text/javascript"
							}
						}
					],
					"request": {
						"method": "GET",
						"header": [],
						"url": {
							"raw": "{{baseUrl}}/api/v1/comments/{{commentID}}",
							"host": [
								"{{baseUrl}}"
							],
							"path": [
								"api",
								"v1",
								"comments",
								"{{commentID}}"
							]
						}
					},
					"response": []
				},
				{
					"name": "Delete post",
					"event": [
						{
							"listen": "test",
							"script": {
								"id": "9595fb85-c3e3-4e36-a1b6-9636fa86fd00",
								"exec": [
									"pm.test(\"Status code is 200\", function () {\r",
									"    pm.response.to.have.status(200);\r",
									"});"
								],
								"type": "text/javascript"
							}
						}
					],
					"request": {
						"method": "DELETE",
						"header": [],
						"url": {
							"raw": "{{baseUrl}}/api/v1/posts/{{postID}}",
							"host": [
								"{{baseUrl}}"
							],
							"path": [
								"api",
								"v1",
								"posts",
								"{{postID}}"
							]
						}
					},
					"response": []
				},
				{
					"name": "Confirm post deletion",
					"event": [
						{
							"listen": "test",
							"script": {
								"id": "94d107b1-ebc5-4542-9152-91bfc94a43bd",
								"exec": [
									"pm.test(\"Status code is 404\", function () {\r",
									"    pm.response.to.have.status(404);\r",
									"});\r",
									"\r",
									"let jsonData = pm.response.json();\r",
									"\r",
									"pm.test(\"Check error message for deleted post\", function () {\r",
									"    pm.expect(jsonData.error).to.eql(\"Post with id \" + pm.collectionVariables.get(\"postID\") + \" not found\");\r",
									"});\r",
									"\r",
									"//clean-up\r",
									"pm.collectionVariables.unset(\"postID\");"
								],
								"type": "text/javascript"
							}
						}
					],
					"request": {
						"method": "GET",
						"header": [],
						"url": {
							"raw": "{{baseUrl}}/api/v1/posts/{{postID}}",
							"host": [
								"{{baseUrl}}"
							],
							"path": [
								"api",
								"v1",
								"posts",
								"{{postID}}"
							]
						}
					},
					"response": []
				}
			],
			"protocolProfileBehavior": {}
		}
	],
	"event": [
		{
			"listen": "prerequest",
			"script": {
				"id": "739bb8a9-eccb-4e20-b401-cf7ee10366d9",
				"type": "text/javascript",
				"exec": [
					""
				]
			}
		},
		{
			"listen": "test",
			"script": {
				"id": "a89ae42d-55ec-4a5a-92fc-5fd48530261b",
				"type": "text/javascript",
				"exec": [
					""
				]
			}
		}
	],
	"variable": [
		{
			"id": "6748b7be-3829-4170-8a28-4ffdcb632b38",
			"key": "baseUrl",
			"value": "https://intense-plains-86846.herokuapp.com"
		},
		{
			"id": "bd78d105-3918-4b62-8436-1dd42bb9f729",
			"key": "tempfirstName",
			"value": ""
		},
		{
			"id": "18aa22ce-25f2-4a61-8852-6cb89568a6fc",
			"key": "userOneEmail",
			"value": ""
		},
		{
			"id": "9888eea3-b265-4578-bbcd-3a910dff749f",
			"key": "userOneID",
			"value": ""
		},
		{
			"id": "57fa848b-5e86-4834-8db3-7047bcfb4834",
			"key": "connectionRequestID",
			"value": ""
		},
		{
			"id": "a5cd7709-bbf5-4c0e-883d-7545bd3652ba",
			"key": "adminUsername",
			"value": "stage.5.final.project@gmail.com"
		},
		{
			"id": "4cca7a42-11f8-43a7-86d5-b804e2c53dea",
			"key": "adminPassword",
			"value": "Admin123$"
		},
		{
			"id": "c6caaab9-42e3-4279-a73e-d0c853bf2d86",
			"key": "username",
			"value": "abalas@abv.bg"
		},
		{
			"id": "7da39ce7-b9f6-4971-b789-b8030c8364d8",
			"key": "password",
			"value": "Test123!"
		},
		{
			"id": "655fbd30-fa40-4a2e-b47a-fe77c45f5c6e",
			"key": "SessionCookie",
			"value": ""
		},
		{
			"id": "f8736050-000d-4df5-99b8-e19b1a4b5ba8",
			"key": "userID",
			"value": ""
		},
		{
			"id": "0bfcb91d-88b6-4129-81b4-95235d87e9c9",
			"key": "postID",
			"value": ""
		}
	],
	"protocolProfileBehavior": {}
}